{  
   "current_page":1,
   "total_pages":373,
   "total_items":37213,
   "photos":[  
      {  
         "id":158579479,
         "user_id":324706,
         "name":"Forces of Mountains",
         "description":"Some of the other mountains in southern Chile here, peaks that are about 9000 feet vertical above the glacier you see below.  The giant spikes of ice called seracs make for a complex foreground but ultimately one I couldn't pass up.  The strong light and shadow at the time the atmosphere was best on the peaks made for an image that begged a B&amp;W rendition.  \n\nThanks for looking.",
         "camera":null,
         "lens":null,
         "focal_length":null,
         "iso":null,
         "shutter_speed":null,
         "aperture":null,
         "times_viewed":9083,
         "rating":99.8,
         "status":1,
         "created_at":"2016-06-14T09:21:35-04:00",
         "category":8,
         "location":null,
         "latitude":null,
         "longitude":null,
         "taken_at":null,
         "hi_res_uploaded":0,
         "for_sale":false,
         "width":2000,
         "height":1416,
         "votes_count":2471,
         "favorites_count":0,
         "comments_count":125,
         "nsfw":false,
         "sales_count":0,
         "for_sale_date":null,
         "highest_rating":99.8,
         "highest_rating_date":"2016-06-14T16:24:55-04:00",
         "license_type":0,
         "converted":27,
         "collections_count":213,
         "crop_version":3,
         "privacy":false,
         "profile":true,
         "image_url":"https://drscdn.500px.org/photo/158579479/w%3D200_h%3D200/816ceb1362ff6c5777c375024559ebe1?v=3",
         "images":[  
            {  
               "size":200,
               "url":"https://drscdn.500px.org/photo/158579479/w%3D200_h%3D200/816ceb1362ff6c5777c375024559ebe1?v=3",
               "https_url":"https://drscdn.500px.org/photo/158579479/w%3D200_h%3D200/816ceb1362ff6c5777c375024559ebe1?v=3",
               "format":"jpeg"
            },
            {  
               "size":600,
               "url":"https://drscdn.500px.org/photo/158579479/w%3D600_h%3D600/1660ec04ac9256e5c407ecdc0c4d869f?v=3",
               "https_url":"https://drscdn.500px.org/photo/158579479/w%3D600_h%3D600/1660ec04ac9256e5c407ecdc0c4d869f?v=3",
               "format":"jpeg"
            }
         ],
         "url":"/photo/158579479/forces-of-mountains-by-marc-adamus",
         "positive_votes_count":2471,
         "converted_bits":27,
         "location_details":{  
            "country":[  

            ],
            "county":[  

            ],
            "state":[  

            ],
            "city":[  

            ],
            "attraction":[  

            ]
         },
         "watermark":false,
         "image_format":"jpeg",
         "user":{  
            "id":324706,
            "username":"MAPhoto",
            "firstname":"Marc ",
            "lastname":"Adamus",
            "city":"Never know",
            "country":"going to be",
            "usertype":11,
            "fullname":"Marc  Adamus",
            "userpic_url":"https://pacdn.500px.org/324706/9fdb6516fab9a65a6bad39c282732c4f8ab7197c/1.jpg?5",
            "userpic_https_url":"https://pacdn.500px.org/324706/9fdb6516fab9a65a6bad39c282732c4f8ab7197c/1.jpg?5",
            "cover_url":"https://pacdn.500px.org/324706/9fdb6516fab9a65a6bad39c282732c4f8ab7197c/cover_2048.jpg?11",
            "upgrade_status":0,
            "store_on":false,
            "affection":501431,
            "avatars":{  
               "default":{  
                  "https":"https://pacdn.500px.org/324706/9fdb6516fab9a65a6bad39c282732c4f8ab7197c/1.jpg?5"
               },
               "large":{  
                  "https":"https://pacdn.500px.org/324706/9fdb6516fab9a65a6bad39c282732c4f8ab7197c/2.jpg?5"
               },
               "small":{  
                  "https":"https://pacdn.500px.org/324706/9fdb6516fab9a65a6bad39c282732c4f8ab7197c/3.jpg?5"
               },
               "tiny":{  
                  "https":"https://pacdn.500px.org/324706/9fdb6516fab9a65a6bad39c282732c4f8ab7197c/4.jpg?5"
               }
            },
            "followers_count":0
         },
         "licensing_requested":false,
         "licensing_suggested":false
      }
   ]
}